{
  "D": [
    {
      "name": "знать",
      "values": [
        {
          "name": "методы создания, управления, предварительной обработки и преобразования корпусов данных",
          "weight": 0
        },
        {
          "name": "методы машинного обучения для анализа текста",
          "weight": 0
        }
      ]
    },
    {
      "name": "уметь",
      "values": [
        {
          "name": "реализовывать с помощью библиотек Python модели обработки данных естественного языка",
          "weight": 0
        },
        {
          "name": "строить конвейеры векторизации и преобразования текстовых признаков во входные данные",
          "weight": 0
        }
      ]
    },
    {
      "name": "владеть",
      "values": [
        {
          "name": "навыками разработки и реализации специализированных моделей машинного обучения для обработки естественного языка",
          "weight": 0
        },
        {
          "name": "навыками конструирования признаковых пространств для задач обработки естественного языка",
          "weight": 0
        }
      ]
    }
  ],
  "T": [
    {
      "name": "признаки для текстовых данных",
      "weights": [
        {
          "D": "знать",
          "value": "методы создания, управления, предварительной обработки и преобразования корпусов данных",
          "weight": 0.089
        },
        {
          "D": "знать",
          "value": "методы машинного обучения для анализа текста",
          "weight": 0.056
        },
        {
          "D": "уметь",
          "value": "реализовывать с помощью библиотек Python модели обработки данных естественного языка",
          "weight": 0.127
        },
        {
          "D": "уметь",
          "value": "строить конвейеры векторизации и преобразования текстовых признаков во входные данные",
          "weight": 0.134
        },
        {
          "D": "владеть",
          "value": "навыками разработки и реализации специализированных моделей машинного обучения для обработки естественного языка",
          "weight": 0.04
        },
        {
          "D": "владеть",
          "value": "навыками конструирования признаковых пространств для задач обработки естественного языка",
          "weight": 0.148
        }
      ]
    },
    {
      "name": "токенизация",
      "weights": [
        {
          "D": "знать",
          "value": "методы создания, управления, предварительной обработки и преобразования корпусов данных",
          "weight": 0.133
        },
        {
          "D": "знать",
          "value": "методы машинного обучения для анализа текста",
          "weight": 0.056
        },
        {
          "D": "уметь",
          "value": "реализовывать с помощью библиотек Python модели обработки данных естественного языка",
          "weight": 0.127
        },
        {
          "D": "уметь",
          "value": "строить конвейеры векторизации и преобразования текстовых признаков во входные данные",
          "weight": 0.149
        },
        {
          "D": "владеть",
          "value": "навыками разработки и реализации специализированных моделей машинного обучения для обработки естественного языка",
          "weight": 0.04
        },
        {
          "D": "владеть",
          "value": "навыками конструирования признаковых пространств для задач обработки естественного языка",
          "weight": 0.148
        }
      ]
    },
    {
      "name": "лемматизация",
      "weights": [
        {
          "D": "знать",
          "value": "методы создания, управления, предварительной обработки и преобразования корпусов данных",
          "weight": 0.111
        },
        {
          "D": "знать",
          "value": "методы машинного обучения для анализа текста",
          "weight": 0.056
        },
        {
          "D": "уметь",
          "value": "реализовывать с помощью библиотек Python модели обработки данных естественного языка",
          "weight": 0.127
        },
        {
          "D": "уметь",
          "value": "строить конвейеры векторизации и преобразования текстовых признаков во входные данные",
          "weight": 0.134
        },
        {
          "D": "владеть",
          "value": "навыками разработки и реализации специализированных моделей машинного обучения для обработки естественного языка",
          "weight": 0.04
        },
        {
          "D": "владеть",
          "value": "навыками конструирования признаковых пространств для задач обработки естественного языка",
          "weight": 0.111
        }
      ]
    },
    {
      "name": "стоп-слова",
      "weights": [
        {
          "D": "знать",
          "value": "методы создания, управления, предварительной обработки и преобразования корпусов данных",
          "weight": 0.133
        },
        {
          "D": "знать",
          "value": "методы машинного обучения для анализа текста",
          "weight": 0.056
        },
        {
          "D": "уметь",
          "value": "реализовывать с помощью библиотек Python модели обработки данных естественного языка",
          "weight": 0.127
        },
        {
          "D": "уметь",
          "value": "строить конвейеры векторизации и преобразования текстовых признаков во входные данные",
          "weight": 0.149
        },
        {
          "D": "владеть",
          "value": "навыками разработки и реализации специализированных моделей машинного обучения для обработки естественного языка",
          "weight": 0.04
        },
        {
          "D": "владеть",
          "value": "навыками конструирования признаковых пространств для задач обработки естественного языка",
          "weight": 0.111
        }
      ]
    },
    {
      "name": "мешок слов",
      "weights": [
        {
          "D": "знать",
          "value": "методы создания, управления, предварительной обработки и преобразования корпусов данных",
          "weight": 0.089
        },
        {
          "D": "знать",
          "value": "методы машинного обучения для анализа текста",
          "weight": 0.056
        },
        {
          "D": "уметь",
          "value": "реализовывать с помощью библиотек Python модели обработки данных естественного языка",
          "weight": 0.127
        },
        {
          "D": "уметь",
          "value": "строить конвейеры векторизации и преобразования текстовых признаков во входные данные",
          "weight": 0.134
        },
        {
          "D": "владеть",
          "value": "навыками разработки и реализации специализированных моделей машинного обучения для обработки естественного языка",
          "weight": 0.04
        },
        {
          "D": "владеть",
          "value": "навыками конструирования признаковых пространств для задач обработки естественного языка",
          "weight": 0.111
        }
      ]
    },
    {
      "name": "pipeline",
      "weights": [
        {
          "D": "знать",
          "value": "методы создания, управления, предварительной обработки и преобразования корпусов данных",
          "weight": 0.089
        },
        {
          "D": "знать",
          "value": "методы машинного обучения для анализа текста",
          "weight": 0.056
        },
        {
          "D": "уметь",
          "value": "реализовывать с помощью библиотек Python модели обработки данных естественного языка",
          "weight": 0.127
        },
        {
          "D": "уметь",
          "value": "строить конвейеры векторизации и преобразования текстовых признаков во входные данные",
          "weight": 0.134
        },
        {
          "D": "владеть",
          "value": "навыками разработки и реализации специализированных моделей машинного обучения для обработки естественного языка",
          "weight": 0.04
        },
        {
          "D": "владеть",
          "value": "навыками конструирования признаковых пространств для задач обработки естественного языка",
          "weight": 0.148
        }
      ]
    },
    {
      "name": "корпус данных",
      "weights": [
        {
          "D": "знать",
          "value": "методы создания, управления, предварительной обработки и преобразования корпусов данных",
          "weight": 0.178
        },
        {
          "D": "знать",
          "value": "методы машинного обучения для анализа текста",
          "weight": 0.056
        },
        {
          "D": "уметь",
          "value": "реализовывать с помощью библиотек Python модели обработки данных естественного языка",
          "weight": 0.127
        },
        {
          "D": "уметь",
          "value": "строить конвейеры векторизации и преобразования текстовых признаков во входные данные",
          "weight": 0.09
        },
        {
          "D": "владеть",
          "value": "навыками разработки и реализации специализированных моделей машинного обучения для обработки естественного языка",
          "weight": 0.08
        },
        {
          "D": "владеть",
          "value": "навыками конструирования признаковых пространств для задач обработки естественного языка",
          "weight": 0.074
        }
      ]
    },
    {
      "name": "языковое моделирование",
      "weights": [
        {
          "D": "знать",
          "value": "методы создания, управления, предварительной обработки и преобразования корпусов данных",
          "weight": 0.044
        },
        {
          "D": "знать",
          "value": "методы машинного обучения для анализа текста",
          "weight": 0.167
        },
        {
          "D": "уметь",
          "value": "реализовывать с помощью библиотек Python модели обработки данных естественного языка",
          "weight": 0.036
        },
        {
          "D": "уметь",
          "value": "строить конвейеры векторизации и преобразования текстовых признаков во входные данные",
          "weight": 0.03
        },
        {
          "D": "владеть",
          "value": "навыками разработки и реализации специализированных моделей машинного обучения для обработки естественного языка",
          "weight": 0.2
        },
        {
          "D": "владеть",
          "value": "навыками конструирования признаковых пространств для задач обработки естественного языка",
          "weight": 0.093
        }
      ]
    },
    {
      "name": "методы машинного обучения",
      "weights": [
        {
          "D": "знать",
          "value": "методы создания, управления, предварительной обработки и преобразования корпусов данных",
          "weight": 0.044
        },
        {
          "D": "знать",
          "value": "методы машинного обучения для анализа текста",
          "weight": 0.139
        },
        {
          "D": "уметь",
          "value": "реализовывать с помощью библиотек Python модели обработки данных естественного языка",
          "weight": 0.036
        },
        {
          "D": "уметь",
          "value": "строить конвейеры векторизации и преобразования текстовых признаков во входные данные",
          "weight": 0.015
        },
        {
          "D": "владеть",
          "value": "навыками разработки и реализации специализированных моделей машинного обучения для обработки естественного языка",
          "weight": 0.16
        },
        {
          "D": "владеть",
          "value": "навыками конструирования признаковых пространств для задач обработки естественного языка",
          "weight": 0.019
        }
      ]
    },
    {
      "name": "кластеризация",
      "weights": [
        {
          "D": "знать",
          "value": "методы создания, управления, предварительной обработки и преобразования корпусов данных",
          "weight": 0.044
        },
        {
          "D": "знать",
          "value": "методы машинного обучения для анализа текста",
          "weight": 0.139
        },
        {
          "D": "уметь",
          "value": "реализовывать с помощью библиотек Python модели обработки данных естественного языка",
          "weight": 0.018
        },
        {
          "D": "уметь",
          "value": "строить конвейеры векторизации и преобразования текстовых признаков во входные данные",
          "weight": 0.015
        },
        {
          "D": "владеть",
          "value": "навыками разработки и реализации специализированных моделей машинного обучения для обработки естественного языка",
          "weight": 0.16
        },
        {
          "D": "владеть",
          "value": "навыками конструирования признаковых пространств для задач обработки естественного языка",
          "weight": 0.019
        }
      ]
    },
    {
      "name": "нейронная сеть",
      "weights": [
        {
          "D": "знать",
          "value": "методы создания, управления, предварительной обработки и преобразования корпусов данных",
          "weight": 0.044
        },
        {
          "D": "знать",
          "value": "методы машинного обучения для анализа текста",
          "weight": 0.167
        },
        {
          "D": "уметь",
          "value": "реализовывать с помощью библиотек Python модели обработки данных естественного языка",
          "weight": 0.018
        },
        {
          "D": "уметь",
          "value": "строить конвейеры векторизации и преобразования текстовых признаков во входные данные",
          "weight": 0.015
        },
        {
          "D": "владеть",
          "value": "навыками разработки и реализации специализированных моделей машинного обучения для обработки естественного языка",
          "weight": 0.16
        },
        {
          "D": "владеть",
          "value": "навыками конструирования признаковых пространств для задач обработки естественного языка",
          "weight": 0.019
        }
      ]
    }
  ]
}